00:09:07.542 INFO  [Narrow Node] 200 HEAD / ::ffff:127.0.0.1 
00:09:07.542 INFO  [Narrow Node] 200 HEAD / ::ffff:127.0.0.1 
00:13:49.185 INFO  [Narrow Node] 200 GET / ::ffff:127.0.0.1 
00:13:49.185 INFO  [Narrow Node] 200 GET / ::ffff:127.0.0.1 
00:25:25.513 INFO  [Narrow Node] 200 GET / ::ffff:127.0.0.1 
00:25:25.513 INFO  [Narrow Node] 200 GET / ::ffff:127.0.0.1 
00:25:27.317 INFO  [Narrow Node] 200 GET /login?load=true&_=1552530350489 ::ffff:127.0.0.1 
00:25:27.317 INFO  [Narrow Node] 200 GET /login?load=true&_=1552530350489 ::ffff:127.0.0.1 
00:54:39.940 INFO  [Narrow Node] 200 GET / 134.53.86.218 
00:54:39.940 INFO  [Narrow Node] 200 GET / 134.53.86.218 
00:54:40.020 INFO  [Narrow Node] 404 GET /favicon.ico 134.53.86.218 
00:54:40.020 INFO  [Narrow Node] 404 GET /favicon.ico 134.53.86.218 
01:05:04.952 INFO  [Narrow Node] 404 GET /robots.txt ::ffff:127.0.0.1 
01:05:04.952 INFO  [Narrow Node] 404 GET /robots.txt ::ffff:127.0.0.1 
01:05:04.978 INFO  [Narrow Node] 200 GET / ::ffff:127.0.0.1 
01:05:04.978 INFO  [Narrow Node] 200 GET / ::ffff:127.0.0.1 
01:05:11.887 INFO  [Narrow Node] 200 GET /login?load=true&_=1552530350489 ::ffff:127.0.0.1 
01:05:11.887 INFO  [Narrow Node] 200 GET /login?load=true&_=1552530350489 ::ffff:127.0.0.1 
01:05:13.896 INFO  [Narrow Node] 200 POST /login {"overlay":"true"} ::ffff:127.0.0.1 
01:05:13.896 INFO  [Narrow Node] 200 POST /login {"overlay":"true"} ::ffff:127.0.0.1 
01:05:42.392 INFO  [Narrow Node] 404 GET /account/forgot ::ffff:127.0.0.1 
01:05:42.393 INFO  [Narrow Node] 404 GET /account/forgot ::ffff:127.0.0.1 
01:09:42.417 INFO  [Narrow Node] 200 HEAD / ::ffff:127.0.0.1 
01:09:42.417 INFO  [Narrow Node] 200 HEAD / ::ffff:127.0.0.1 
01:15:34.276 INFO  [Narrow Node] 200 GET / ::ffff:127.0.0.1 
01:15:34.276 INFO  [Narrow Node] 200 GET / ::ffff:127.0.0.1 
01:25:29.391 INFO  [Narrow Node] 404 GET /robots.txt ::ffff:127.0.0.1 
01:25:29.391 INFO  [Narrow Node] 404 GET /robots.txt ::ffff:127.0.0.1 
01:25:30.418 INFO  [Narrow Node] 200 GET / ::ffff:127.0.0.1 
01:25:30.418 INFO  [Narrow Node] 200 GET / ::ffff:127.0.0.1 
01:51:55.642 INFO  [Narrow Node] 200 GET / ::ffff:127.0.0.1 
01:51:55.642 INFO  [Narrow Node] 200 GET / ::ffff:127.0.0.1 
01:56:34.127 INFO  [Narrow Node] 200 HEAD / ::ffff:127.0.0.1 
01:56:34.127 INFO  [Narrow Node] 200 HEAD / ::ffff:127.0.0.1 
02:15:14.020 INFO  [Narrow Node] 404 GET /robots.txt ::ffff:127.0.0.1 
02:15:14.020 INFO  [Narrow Node] 404 GET /robots.txt ::ffff:127.0.0.1 
02:15:15.114 INFO  [Narrow Node] 200 GET / ::ffff:127.0.0.1 
02:15:15.114 INFO  [Narrow Node] 200 GET / ::ffff:127.0.0.1 
02:15:42.908 INFO  [Narrow Node] 200 GET /login?load=true&_=1552530350489 ::ffff:127.0.0.1 
02:15:42.908 INFO  [Narrow Node] 200 GET /login?load=true&_=1552530350489 ::ffff:127.0.0.1 
02:25:28.650 INFO  [Narrow Node] 200 GET / ::ffff:127.0.0.1 
02:25:28.650 INFO  [Narrow Node] 200 GET / ::ffff:127.0.0.1 
02:25:30.358 INFO  [Narrow Node] 200 GET /login?load=true&_=1552530350489 ::ffff:127.0.0.1 
02:25:30.358 INFO  [Narrow Node] 200 GET /login?load=true&_=1552530350489 ::ffff:127.0.0.1 
02:34:22.555 INFO  [Narrow Node] 200 GET /login ::ffff:127.0.0.1 
02:34:22.555 INFO  [Narrow Node] 200 GET /login ::ffff:127.0.0.1 
02:34:22.727 INFO  [Narrow Node] 304 GET /login?load=true&_=1552530350489 ::ffff:127.0.0.1 
02:34:22.727 INFO  [Narrow Node] 304 GET /login?load=true&_=1552530350489 ::ffff:127.0.0.1 
02:34:23.048 INFO  [Narrow Node] 200 POST /login {"overlay":"true"} ::ffff:127.0.0.1 
02:34:23.048 INFO  [Narrow Node] 200 POST /login {"overlay":"true"} ::ffff:127.0.0.1 
02:34:28.432 INFO  [Narrow Node] 200 POST /login {"login":{"username":"jill","password":"12345"}} ::ffff:127.0.0.1 
02:34:28.432 INFO  [Narrow Node] 200 POST /login {"login":{"username":"jill","password":"12345"}} ::ffff:127.0.0.1 
02:34:33.822 INFO  [Narrow Node] 200 POST /login {"login":{"username":"jill","password":"1234"}} ::ffff:127.0.0.1 
02:34:33.822 INFO  [Narrow Node] 200 POST /login {"login":{"username":"jill","password":"1234"}} ::ffff:127.0.0.1 
02:34:40.579 INFO  [Narrow Node] 200 POST /login {"login":{"username":"jill","password":"1234"}} ::ffff:127.0.0.1 
02:34:40.579 INFO  [Narrow Node] 200 POST /login {"login":{"username":"jill","password":"1234"}} ::ffff:127.0.0.1 
02:34:42.029 INFO  [Narrow Node] 200 POST /login {"login":{"username":"jill","password":"1234"}} ::ffff:127.0.0.1 
02:34:42.029 INFO  [Narrow Node] 200 POST /login {"login":{"username":"jill","password":"1234"}} ::ffff:127.0.0.1 
02:34:42.745 INFO  [Narrow Node] 200 POST /login {"login":{"username":"jill","password":"1234"}} ::ffff:127.0.0.1 
02:34:42.745 INFO  [Narrow Node] 200 POST /login {"login":{"username":"jill","password":"1234"}} ::ffff:127.0.0.1 
02:34:43.239 INFO  [Narrow Node] 200 POST /login {"login":{"username":"jill","password":"1234"}} ::ffff:127.0.0.1 
02:34:43.239 INFO  [Narrow Node] 200 POST /login {"login":{"username":"jill","password":"1234"}} ::ffff:127.0.0.1 
02:34:43.705 INFO  [Narrow Node] 200 POST /login {"login":{"username":"jill","password":"1234"}} ::ffff:127.0.0.1 
02:34:43.705 INFO  [Narrow Node] 200 POST /login {"login":{"username":"jill","password":"1234"}} ::ffff:127.0.0.1 
02:34:44.162 INFO  [Narrow Node] 200 POST /login {"login":{"username":"jill","password":"1234"}} ::ffff:127.0.0.1 
02:34:44.162 INFO  [Narrow Node] 200 POST /login {"login":{"username":"jill","password":"1234"}} ::ffff:127.0.0.1 
02:34:52.823 INFO  [Narrow Node] 200 GET /login ::ffff:127.0.0.1 
02:34:52.823 INFO  [Narrow Node] 200 GET /login ::ffff:127.0.0.1 
02:34:52.940 INFO  [Narrow Node] 304 GET /login?load=true&_=1552530350489 ::ffff:127.0.0.1 
02:34:52.940 INFO  [Narrow Node] 304 GET /login?load=true&_=1552530350489 ::ffff:127.0.0.1 
02:34:53.110 INFO  [Narrow Node] 200 POST /login {"overlay":"true"} ::ffff:127.0.0.1 
02:34:53.110 INFO  [Narrow Node] 200 POST /login {"overlay":"true"} ::ffff:127.0.0.1 
02:34:58.036 INFO  [Narrow Node] 200 POST /login {"login":{"username":"jill","password":"123"}} ::ffff:127.0.0.1 
02:34:58.036 INFO  [Narrow Node] 200 POST /login {"login":{"username":"jill","password":"123"}} ::ffff:127.0.0.1 
02:35:01.574 INFO  [Narrow Node] 200 POST /login {"login":{"username":"jill","password":"1234"}} ::ffff:127.0.0.1 
02:35:01.574 INFO  [Narrow Node] 200 POST /login {"login":{"username":"jill","password":"1234"}} ::ffff:127.0.0.1 
02:35:32.061 INFO  [Narrow Node] 200 POST /login {"login":{"username":"jill","password":"1234"}} ::ffff:127.0.0.1 
02:35:32.061 INFO  [Narrow Node] 200 POST /login {"login":{"username":"jill","password":"1234"}} ::ffff:127.0.0.1 
02:35:38.411 INFO  [Narrow Node] 200 POST /login {"login":{"username":"jill","password":"1233"}} ::ffff:127.0.0.1 
02:35:38.411 INFO  [Narrow Node] 200 POST /login {"login":{"username":"jill","password":"1233"}} ::ffff:127.0.0.1 
02:35:42.204 INFO  [Narrow Node] 200 POST /login {"login":{"username":"jill","password":"1234"}} ::ffff:127.0.0.1 
02:35:42.204 INFO  [Narrow Node] 200 POST /login {"login":{"username":"jill","password":"1234"}} ::ffff:127.0.0.1 
02:35:44.864 INFO  [Narrow Node] 200 GET /login ::ffff:127.0.0.1 
02:35:44.864 INFO  [Narrow Node] 200 GET /login ::ffff:127.0.0.1 
02:35:44.997 INFO  [Narrow Node] 304 GET /login?load=true&_=1552530350489 ::ffff:127.0.0.1 
02:35:44.997 INFO  [Narrow Node] 304 GET /login?load=true&_=1552530350489 ::ffff:127.0.0.1 
02:35:45.441 INFO  [Narrow Node] 200 POST /login {"overlay":"true"} ::ffff:127.0.0.1 
02:35:45.441 INFO  [Narrow Node] 200 POST /login {"overlay":"true"} ::ffff:127.0.0.1 
02:35:50.673 INFO  [Narrow Node] 200 POST /login {"login":{"username":"jill","password":"1234"}} ::ffff:127.0.0.1 
02:35:50.673 INFO  [Narrow Node] 200 POST /login {"login":{"username":"jill","password":"1234"}} ::ffff:127.0.0.1 
02:52:53.602 INFO  [Narrow Node] 200 HEAD / ::ffff:127.0.0.1 
02:52:53.602 INFO  [Narrow Node] 200 HEAD / ::ffff:127.0.0.1 
02:53:49.449 INFO  [Narrow Node] 200 GET / ::ffff:127.0.0.1 
02:53:49.449 INFO  [Narrow Node] 200 GET / ::ffff:127.0.0.1 
02:53:49.834 INFO  [Narrow Node] 200 GET / ::ffff:127.0.0.1 
02:53:49.834 INFO  [Narrow Node] 200 GET / ::ffff:127.0.0.1 
02:53:50.997 INFO  [Narrow Node] 200 GET / ::ffff:127.0.0.1 
02:53:50.997 INFO  [Narrow Node] 200 GET / ::ffff:127.0.0.1 
02:59:34.071 INFO  [Narrow Node] 200 GET / ::ffff:127.0.0.1 
02:59:34.071 INFO  [Narrow Node] 200 GET / ::ffff:127.0.0.1 
02:59:36.360 INFO  [Narrow Node] 200 GET / ::ffff:127.0.0.1 
02:59:36.360 INFO  [Narrow Node] 200 GET / ::ffff:127.0.0.1 
02:59:37.120 INFO  [Narrow Node] 200 GET / ::ffff:127.0.0.1 
02:59:37.120 INFO  [Narrow Node] 200 GET / ::ffff:127.0.0.1 
03:05:45.046 INFO  [Narrow Node] 404 GET /robots.txt ::ffff:127.0.0.1 
03:05:45.046 INFO  [Narrow Node] 404 GET /robots.txt ::ffff:127.0.0.1 
03:05:45.080 INFO  [Narrow Node] 200 GET / ::ffff:127.0.0.1 
03:05:45.080 INFO  [Narrow Node] 200 GET / ::ffff:127.0.0.1 
03:06:02.862 INFO  [Narrow Node] 200 GET /login?load=true&_=1552530350489 ::ffff:127.0.0.1 
03:06:02.862 INFO  [Narrow Node] 200 GET /login?load=true&_=1552530350489 ::ffff:127.0.0.1 
03:13:22.162 INFO  [Narrow Node] 200 GET / ::ffff:127.0.0.1 
03:13:22.162 INFO  [Narrow Node] 200 GET / ::ffff:127.0.0.1 
03:25:36.267 INFO  [Narrow Node] 404 GET /robots.txt ::ffff:127.0.0.1 
03:25:36.267 INFO  [Narrow Node] 404 GET /robots.txt ::ffff:127.0.0.1 
03:25:37.293 INFO  [Narrow Node] 200 GET / ::ffff:127.0.0.1 
03:25:37.293 INFO  [Narrow Node] 200 GET / ::ffff:127.0.0.1 
03:25:43.827 INFO  [Narrow Node] 200 GET /login?load=true&_=1552530350489 ::ffff:127.0.0.1 
03:25:43.827 INFO  [Narrow Node] 200 GET /login?load=true&_=1552530350489 ::ffff:127.0.0.1 
03:25:53.925 INFO  [Narrow Node] 200 POST /login {"overlay":"true"} ::ffff:127.0.0.1 
03:25:53.925 INFO  [Narrow Node] 200 POST /login {"overlay":"true"} ::ffff:127.0.0.1 
03:32:38.632 INFO  [Narrow Node] 404 GET /account/forgot ::ffff:127.0.0.1 
03:32:38.632 INFO  [Narrow Node] 404 GET /account/forgot ::ffff:127.0.0.1 
03:34:45.974 INFO  [Narrow Node] 200 GET /login ::ffff:127.0.0.1 
03:34:45.974 INFO  [Narrow Node] 200 GET /login ::ffff:127.0.0.1 
03:52:28.566 INFO  [Narrow Node] 200 GET / ::ffff:127.0.0.1 
03:52:28.566 INFO  [Narrow Node] 200 GET / ::ffff:127.0.0.1 
03:54:06.587 INFO  [Narrow Node] 200 GET /?XDEBUG_SESSION_START=phpstorm ::ffff:127.0.0.1 
03:54:06.587 INFO  [Narrow Node] 200 GET /?XDEBUG_SESSION_START=phpstorm ::ffff:127.0.0.1 
03:58:23.146 INFO  [Narrow Node] 200 GET / ::ffff:127.0.0.1 
03:58:23.146 INFO  [Narrow Node] 200 GET / ::ffff:127.0.0.1 
04:07:14.854 INFO  [Narrow Node] 200 GET /login?load=true&_=1552530350489 ::ffff:127.0.0.1 
04:07:14.854 INFO  [Narrow Node] 200 GET /login?load=true&_=1552530350489 ::ffff:127.0.0.1 
04:07:15.673 INFO  [Narrow Node] 200 POST /login {"overlay":"true"} ::ffff:127.0.0.1 
04:07:15.673 INFO  [Narrow Node] 200 POST /login {"overlay":"true"} ::ffff:127.0.0.1 
04:08:28.247 INFO  [Narrow Node] 404 GET /account/forgot ::ffff:127.0.0.1 
04:08:28.247 INFO  [Narrow Node] 404 GET /account/forgot ::ffff:127.0.0.1 
04:29:47.874 INFO  [Narrow Node] 200 GET / ::ffff:127.0.0.1 
04:29:47.874 INFO  [Narrow Node] 200 GET / ::ffff:127.0.0.1 
05:14:01.662 INFO  [Narrow Node] 200 GET / ::ffff:127.0.0.1 
05:14:01.662 INFO  [Narrow Node] 200 GET / ::ffff:127.0.0.1 
05:14:10.366 INFO  [Narrow Node] 404 GET /nmaplowercheck1552641249 ::ffff:127.0.0.1 
05:14:10.366 INFO  [Narrow Node] 404 GET /nmaplowercheck1552641249 ::ffff:127.0.0.1 
05:14:10.386 INFO  [Narrow Node] 200 GET / ::ffff:127.0.0.1 
05:14:10.386 INFO  [Narrow Node] 200 GET / ::ffff:127.0.0.1 
05:14:10.388 INFO  [Narrow Node] 200 GET / ::ffff:127.0.0.1 
05:14:10.388 INFO  [Narrow Node] 404 POST /sdk ::ffff:127.0.0.1 
05:14:10.389 INFO  [Narrow Node] 200 GET / ::ffff:127.0.0.1 
05:14:10.389 INFO  [Narrow Node] 200 GET / ::ffff:127.0.0.1 
05:14:11.251 INFO  [Narrow Node] 200 GET / ::ffff:127.0.0.1 
05:14:11.251 INFO  [Narrow Node] 200 GET / ::ffff:127.0.0.1 
05:14:11.307 INFO  [Narrow Node] 404 GET /evox/about ::ffff:127.0.0.1 
05:14:11.307 INFO  [Narrow Node] 404 GET /evox/about ::ffff:127.0.0.1 
05:14:11.351 INFO  [Narrow Node] 404 GET /HNAP1 ::ffff:127.0.0.1 
05:14:11.351 INFO  [Narrow Node] 404 GET /HNAP1 ::ffff:127.0.0.1 
05:39:46.281 INFO  [Narrow Node] 200 GET / ::ffff:127.0.0.1 
05:39:46.281 INFO  [Narrow Node] 200 GET / ::ffff:127.0.0.1 
05:49:18.446 INFO  [Narrow Node] 200 GET / ::ffff:127.0.0.1 
05:49:18.446 INFO  [Narrow Node] 200 GET / ::ffff:127.0.0.1 
05:50:26.488 INFO  [Narrow Node] 200 GET /docsrobots.txt ::ffff:127.0.0.1 
05:50:26.488 INFO  [Narrow Node] 200 GET /docsrobots.txt ::ffff:127.0.0.1 
05:50:28.971 INFO  [Narrow Node] 200 GET /docs ::ffff:127.0.0.1 
05:50:28.971 INFO  [Narrow Node] 200 GET /docs ::ffff:127.0.0.1 
05:56:36.357 INFO  [Narrow Node] 404 GET /robots.txt ::ffff:127.0.0.1 
05:56:36.357 INFO  [Narrow Node] 404 GET /robots.txt ::ffff:127.0.0.1 
05:56:37.452 INFO  [Narrow Node] 200 GET / ::ffff:127.0.0.1 
05:56:37.452 INFO  [Narrow Node] 200 GET / ::ffff:127.0.0.1 
06:35:41.751 INFO  [Narrow Node] 200 HEAD / ::ffff:127.0.0.1 
06:35:41.751 INFO  [Narrow Node] 200 HEAD / ::ffff:127.0.0.1 
06:48:23.807 INFO  [Narrow Node] 404 GET /_asterisk/ ::ffff:127.0.0.1 
06:48:23.807 INFO  [Narrow Node] 404 GET /_asterisk/ ::ffff:127.0.0.1 
06:49:39.221 INFO  [Narrow Node] 404 GET /admin/assets/js/views/login.js ::ffff:127.0.0.1 
06:49:39.221 INFO  [Narrow Node] 404 GET /admin/assets/js/views/login.js ::ffff:127.0.0.1 
07:07:17.258 INFO  [Narrow Node] 404 GET /robots.txt ::ffff:127.0.0.1 
07:07:17.258 INFO  [Narrow Node] 404 GET /robots.txt ::ffff:127.0.0.1 
07:07:17.292 INFO  [Narrow Node] 200 GET / ::ffff:127.0.0.1 
07:07:17.292 INFO  [Narrow Node] 200 GET / ::ffff:127.0.0.1 
07:07:24.899 INFO  [Narrow Node] 200 GET /login?load=true&_=1552530350489 ::ffff:127.0.0.1 
07:07:24.899 INFO  [Narrow Node] 200 GET /login?load=true&_=1552530350489 ::ffff:127.0.0.1 
07:18:54.414 INFO  [Narrow Node] 404 GET /robots.txt ::ffff:127.0.0.1 
07:18:54.414 INFO  [Narrow Node] 404 GET /robots.txt ::ffff:127.0.0.1 
07:18:54.904 INFO  [Narrow Node] 404 GET /robots.txt ::ffff:127.0.0.1 
07:18:54.904 INFO  [Narrow Node] 404 GET /robots.txt ::ffff:127.0.0.1 
07:20:10.524 INFO  [Narrow Node] 200 GET / ::ffff:127.0.0.1 
07:20:10.524 INFO  [Narrow Node] 200 GET / ::ffff:127.0.0.1 
07:27:46.433 INFO  [Narrow Node] 200 GET / ::ffff:127.0.0.1 
07:27:46.433 INFO  [Narrow Node] 200 GET / ::ffff:127.0.0.1 
07:30:28.232 INFO  [Narrow Node] 200 GET / ::ffff:127.0.0.1 
07:30:28.232 INFO  [Narrow Node] 200 GET / ::ffff:127.0.0.1 
07:57:25.201 INFO  [Narrow Node] 200 GET / ::ffff:127.0.0.1 
07:57:25.201 INFO  [Narrow Node] 200 GET / ::ffff:127.0.0.1 
08:10:30.391 INFO  [Narrow Node] 200 GET /?XDEBUG_SESSION_START=phpstorm ::ffff:127.0.0.1 
08:10:30.391 INFO  [Narrow Node] 200 GET /?XDEBUG_SESSION_START=phpstorm ::ffff:127.0.0.1 
08:54:49.498 INFO  [Narrow Node] 404 GET /robots.txt ::ffff:127.0.0.1 
08:54:49.498 INFO  [Narrow Node] 404 GET /robots.txt ::ffff:127.0.0.1 
09:08:29.051 INFO  [Narrow Node] 404 GET /robots.txt ::ffff:127.0.0.1 
09:08:29.051 INFO  [Narrow Node] 404 GET /robots.txt ::ffff:127.0.0.1 
09:08:29.157 INFO  [Narrow Node] 200 GET / ::ffff:127.0.0.1 
09:08:29.157 INFO  [Narrow Node] 200 GET / ::ffff:127.0.0.1 
09:28:54.115 INFO  [Narrow Node] 404 GET /robots.txt ::ffff:127.0.0.1 
09:28:54.115 INFO  [Narrow Node] 404 GET /robots.txt ::ffff:127.0.0.1 
09:54:11.600 INFO  [Narrow Node] 200 GET / ::ffff:127.0.0.1 
09:54:11.600 INFO  [Narrow Node] 200 GET / ::ffff:127.0.0.1 
10:19:00.783 INFO  [Narrow Node] 404 GET /robots.txt ::ffff:127.0.0.1 
10:19:00.783 INFO  [Narrow Node] 404 GET /robots.txt ::ffff:127.0.0.1 
10:19:01.180 INFO  [Narrow Node] 404 GET /robots.txt ::ffff:127.0.0.1 
10:19:01.180 INFO  [Narrow Node] 404 GET /robots.txt ::ffff:127.0.0.1 
10:19:11.388 INFO  [Narrow Node] 200 GET / ::ffff:127.0.0.1 
10:19:11.388 INFO  [Narrow Node] 200 GET / ::ffff:127.0.0.1 
11:23:41.868 INFO  [Narrow Node] 200 GET / ::ffff:127.0.0.1 
11:23:41.868 INFO  [Narrow Node] 200 GET / ::ffff:127.0.0.1 
11:39:32.234 INFO  [Narrow Node] 404 GET /favicon.ico 134.53.86.2 
11:39:32.234 INFO  [Narrow Node] 404 GET /favicon.ico 134.53.86.2 
12:24:42.385 INFO  [Narrow Node] 200 GET / ::ffff:127.0.0.1 
12:24:42.385 INFO  [Narrow Node] 200 GET / ::ffff:127.0.0.1 
13:03:14.865 INFO  [Narrow Node] 404 GET /robots.txt ::ffff:127.0.0.1 
13:03:14.865 INFO  [Narrow Node] 404 GET /robots.txt ::ffff:127.0.0.1 
13:03:15.892 INFO  [Narrow Node] 200 GET / ::ffff:127.0.0.1 
13:03:15.892 INFO  [Narrow Node] 200 GET / ::ffff:127.0.0.1 
13:03:19.577 INFO  [Narrow Node] 200 GET /login?load=true&_=1552530350489 ::ffff:127.0.0.1 
13:03:19.577 INFO  [Narrow Node] 200 GET /login?load=true&_=1552530350489 ::ffff:127.0.0.1 
13:04:24.046 INFO  [Narrow Node] 200 GET / ::ffff:127.0.0.1 
13:04:24.046 INFO  [Narrow Node] 200 GET / ::ffff:127.0.0.1 
13:13:16.225 INFO  [Narrow Node] 200 GET / ::ffff:127.0.0.1 
13:13:16.225 INFO  [Narrow Node] 200 GET / ::ffff:127.0.0.1 
13:15:25.669 INFO  [Narrow Node] 404 GET /account/forgot ::ffff:127.0.0.1 
13:15:25.669 INFO  [Narrow Node] 404 GET /account/forgot ::ffff:127.0.0.1 
13:46:01.783 INFO  [Narrow Node] 200 GET / 134.53.85.249 
13:46:01.783 INFO  [Narrow Node] 200 GET / 134.53.85.249 
13:46:01.889 INFO  [Narrow Node] 404 GET /favicon.ico 134.53.85.249 
13:46:01.889 INFO  [Narrow Node] 404 GET /favicon.ico 134.53.85.249 
13:51:40.097 INFO  [Narrow Node] The app is now online. 
13:51:49.083 INFO  [Narrow Node] 200 GET / 134.53.85.249 
13:51:49.083 INFO  [Narrow Node] 200 GET / 134.53.85.249 
13:51:49.166 INFO  [Narrow Node] 404 GET /favicon.ico 134.53.85.249 
13:51:49.166 INFO  [Narrow Node] 404 GET /favicon.ico 134.53.85.249 
13:51:52.721 INFO  [Narrow Node] 200 GET / ::ffff:127.0.0.1 
13:51:52.721 INFO  [Narrow Node] 200 GET / ::ffff:127.0.0.1 
13:51:52.934 INFO  [Narrow Node] 200 GET /login?load=true&_=1552672300000 ::ffff:127.0.0.1 
13:51:52.934 INFO  [Narrow Node] 200 GET /login?load=true&_=1552672300000 ::ffff:127.0.0.1 
13:51:53.403 INFO  [Narrow Node] 200 POST /login {"overlay":"true"} ::ffff:127.0.0.1 
13:51:53.403 INFO  [Narrow Node] 200 POST /login {"overlay":"true"} ::ffff:127.0.0.1 
13:52:04.237 INFO  [Narrow Node] 200 POST /login {"login":{"username":"hi","password":"1234"}} ::ffff:127.0.0.1 
13:52:04.237 INFO  [Narrow Node] 200 POST /login {"login":{"username":"hi","password":"1234"}} ::ffff:127.0.0.1 
13:52:09.336 INFO  [Narrow Node] 200 POST /login {"login":{"username":"jill","password":"1234"}} ::ffff:127.0.0.1 
13:52:09.336 INFO  [Narrow Node] 200 POST /login {"login":{"username":"jill","password":"1234"}} ::ffff:127.0.0.1 
13:52:15.887 INFO  [Narrow Node] 200 POST /login {"login":{"username":"hi","password":"1234"}} ::ffff:127.0.0.1 
13:52:15.887 INFO  [Narrow Node] 200 POST /login {"login":{"username":"hi","password":"1234"}} ::ffff:127.0.0.1 
13:52:20.571 INFO  [Narrow Node] 200 POST /login {"login":{"username":"hi","password":"1234"}} ::ffff:127.0.0.1 
13:52:20.571 INFO  [Narrow Node] 200 POST /login {"login":{"username":"hi","password":"1234"}} ::ffff:127.0.0.1 
13:52:21.258 INFO  [Narrow Node] 200 POST /login {"login":{"username":"hi","password":"1234"}} ::ffff:127.0.0.1 
13:52:21.259 INFO  [Narrow Node] 200 POST /login {"login":{"username":"hi","password":"1234"}} ::ffff:127.0.0.1 
13:52:22.794 INFO  [Narrow Node] 200 POST /login {"login":{"username":"hi123","password":"1234"}} ::ffff:127.0.0.1 
13:52:22.794 INFO  [Narrow Node] 200 POST /login {"login":{"username":"hi123","password":"1234"}} ::ffff:127.0.0.1 
13:52:23.559 INFO  [Narrow Node] 200 POST /login {"login":{"username":"hi123","password":"1234"}} ::ffff:127.0.0.1 
13:52:23.559 INFO  [Narrow Node] 200 POST /login {"login":{"username":"hi123","password":"1234"}} ::ffff:127.0.0.1 
13:52:23.972 INFO  [Narrow Node] 200 POST /login {"login":{"username":"hi123","password":"1234"}} ::ffff:127.0.0.1 
13:52:23.972 INFO  [Narrow Node] 200 POST /login {"login":{"username":"hi123","password":"1234"}} ::ffff:127.0.0.1 
13:52:27.120 INFO  [Narrow Node] 200 POST /login {"login":{"username":"jill","password":"1234"}} ::ffff:127.0.0.1 
13:52:27.120 INFO  [Narrow Node] 200 POST /login {"login":{"username":"jill","password":"1234"}} ::ffff:127.0.0.1 
13:54:46.176 INFO  [Narrow Node] 304 GET / ::ffff:127.0.0.1 
13:54:46.176 INFO  [Narrow Node] 304 GET / ::ffff:127.0.0.1 
13:54:46.367 INFO  [Narrow Node] 304 GET /login?load=true&_=1552672300000 ::ffff:127.0.0.1 
13:54:46.367 INFO  [Narrow Node] 304 GET /login?load=true&_=1552672300000 ::ffff:127.0.0.1 
13:54:46.696 INFO  [Narrow Node] 200 POST /login {"overlay":"true"} ::ffff:127.0.0.1 
13:54:46.696 INFO  [Narrow Node] 200 POST /login {"overlay":"true"} ::ffff:127.0.0.1 
13:55:07.285 INFO  [Narrow Node] 200 POST /login {"login":{"username":"jill","password":"12345"}} ::ffff:127.0.0.1 
13:55:07.285 INFO  [Narrow Node] 200 POST /login {"login":{"username":"jill","password":"12345"}} ::ffff:127.0.0.1 
13:55:09.192 INFO  [Narrow Node] 200 POST /login {"login":{"username":"jill","password":"1234"}} ::ffff:127.0.0.1 
13:55:09.192 INFO  [Narrow Node] 200 POST /login {"login":{"username":"jill","password":"1234"}} ::ffff:127.0.0.1 
13:55:26.363 INFO  [Narrow Node] 200 POST /login {"login":{"username":"bob","password":"1234"}} ::ffff:127.0.0.1 
13:55:26.363 INFO  [Narrow Node] 200 POST /login {"login":{"username":"bob","password":"1234"}} ::ffff:127.0.0.1 
13:55:38.223 INFO  [Narrow Node] 200 POST /login {"login":{"username":"bob","password":"1234"}} ::ffff:127.0.0.1 
13:55:38.223 INFO  [Narrow Node] 200 POST /login {"login":{"username":"bob","password":"1234"}} ::ffff:127.0.0.1 
13:55:39.992 INFO  [Narrow Node] 200 POST /login {"login":{"username":"bob","password":"1234"}} ::ffff:127.0.0.1 
13:55:39.992 INFO  [Narrow Node] 200 POST /login {"login":{"username":"bob","password":"1234"}} ::ffff:127.0.0.1 
13:55:42.930 INFO  [Narrow Node] 200 POST /login {"login":{"username":"bob1","password":"1234"}} ::ffff:127.0.0.1 
13:55:42.930 INFO  [Narrow Node] 200 POST /login {"login":{"username":"bob1","password":"1234"}} ::ffff:127.0.0.1 
13:55:44.754 INFO  [Narrow Node] 200 GET /login ::ffff:127.0.0.1 
13:55:44.754 INFO  [Narrow Node] 200 GET /login ::ffff:127.0.0.1 
13:55:44.904 INFO  [Narrow Node] 304 GET /login?load=true&_=1552672300000 ::ffff:127.0.0.1 
13:55:44.904 INFO  [Narrow Node] 304 GET /login?load=true&_=1552672300000 ::ffff:127.0.0.1 
13:55:45.277 INFO  [Narrow Node] 200 POST /login {"overlay":"true"} ::ffff:127.0.0.1 
13:55:45.277 INFO  [Narrow Node] 200 POST /login {"overlay":"true"} ::ffff:127.0.0.1 
13:55:50.274 INFO  [Narrow Node] 200 POST /login {"login":{"username":"bob","password":"12345"}} ::ffff:127.0.0.1 
13:55:50.274 INFO  [Narrow Node] 200 POST /login {"login":{"username":"bob","password":"12345"}} ::ffff:127.0.0.1 
13:55:52.443 INFO  [Narrow Node] 200 POST /login {"login":{"username":"bob","password":"1234566777"}} ::ffff:127.0.0.1 
13:55:52.443 INFO  [Narrow Node] 200 POST /login {"login":{"username":"bob","password":"1234566777"}} ::ffff:127.0.0.1 
13:55:55.155 INFO  [Narrow Node] 200 POST /login {"login":{"username":"bob333453245","password":"1234566777"}} ::ffff:127.0.0.1 
13:55:55.155 INFO  [Narrow Node] 200 POST /login {"login":{"username":"bob333453245","password":"1234566777"}} ::ffff:127.0.0.1 
13:55:59.529 INFO  [Narrow Node] 200 POST /login {"login":{"username":"jill","password":"1234566777"}} ::ffff:127.0.0.1 
13:55:59.529 INFO  [Narrow Node] 200 POST /login {"login":{"username":"jill","password":"1234566777"}} ::ffff:127.0.0.1 
13:56:01.945 INFO  [Narrow Node] 200 POST /login {"login":{"username":"jill","password":"123"}} ::ffff:127.0.0.1 
13:56:01.945 INFO  [Narrow Node] 200 POST /login {"login":{"username":"jill","password":"123"}} ::ffff:127.0.0.1 
13:56:03.807 INFO  [Narrow Node] 200 POST /login {"login":{"username":"jill","password":"1234"}} ::ffff:127.0.0.1 
13:56:03.807 INFO  [Narrow Node] 200 POST /login {"login":{"username":"jill","password":"1234"}} ::ffff:127.0.0.1 
13:56:13.491 INFO  [Narrow Node] The app is now online. 
13:56:19.161 INFO  [Narrow Node] 200 POST /login {"login":{"username":"jill1","password":"1234"}} ::ffff:127.0.0.1 
13:56:19.161 INFO  [Narrow Node] 200 POST /login {"login":{"username":"jill1","password":"1234"}} ::ffff:127.0.0.1 
13:56:22.469 INFO  [Narrow Node] 200 POST /login {"login":{"username":"jill","password":"1234"}} ::ffff:127.0.0.1 
13:56:22.469 INFO  [Narrow Node] 200 POST /login {"login":{"username":"jill","password":"1234"}} ::ffff:127.0.0.1 
14:31:08.880 INFO  [Narrow Node] 404 GET /res/res/js/lib/core.min.js?_=1536132290523 ::ffff:127.0.0.1 
14:31:08.880 INFO  [Narrow Node] 404 GET /res/res/js/lib/core.min.js?_=1536132290523 ::ffff:127.0.0.1 
14:31:09.874 INFO  [Narrow Node] 404 GET /res/res/css/loader.css?_=1536132290523 ::ffff:127.0.0.1 
14:31:09.874 INFO  [Narrow Node] 404 GET /res/res/css/loader.css?_=1536132290523 ::ffff:127.0.0.1 
14:43:52.754 INFO  [Narrow Node] 200 GET / ::ffff:127.0.0.1 
14:43:52.755 INFO  [Narrow Node] 200 GET / ::ffff:127.0.0.1 
15:04:24.721 INFO  [Narrow Node] 200 GET / ::ffff:127.0.0.1 
15:04:24.721 INFO  [Narrow Node] 200 GET / ::ffff:127.0.0.1 
15:53:38.768 INFO  [Narrow Node] 200 GET / ::ffff:127.0.0.1 
15:53:38.768 INFO  [Narrow Node] 200 GET / ::ffff:127.0.0.1 
16:37:18.727 INFO  [Narrow Node] 200 GET / ::ffff:127.0.0.1 
16:37:18.727 INFO  [Narrow Node] 200 GET / ::ffff:127.0.0.1 
17:19:38.177 INFO  [Narrow Node] 200 GET / ::ffff:127.0.0.1 
17:19:38.177 INFO  [Narrow Node] 200 GET / ::ffff:127.0.0.1 
18:23:46.098 INFO  [Narrow Node] 404 GET /.env ::ffff:127.0.0.1 
18:23:46.098 INFO  [Narrow Node] 404 GET /.env ::ffff:127.0.0.1 
18:23:46.773 INFO  [Narrow Node] 404 GET /.git/config ::ffff:127.0.0.1 
18:23:46.773 INFO  [Narrow Node] 404 GET /.git/config ::ffff:127.0.0.1 
19:44:11.690 INFO  [Narrow Node] 404 GET /mambots/editors/fckeditor/editor/filemanager/browser/default/connectors/php/connector.php?Command=GetFoldersAndFiles&Type=File&CurrentFolder=/ ::ffff:127.0.0.1 
19:44:11.690 INFO  [Narrow Node] 404 GET /mambots/editors/fckeditor/editor/filemanager/browser/default/connectors/php/connector.php?Command=GetFoldersAndFiles&Type=File&CurrentFolder=/ ::ffff:127.0.0.1 
20:04:24.128 INFO  [Narrow Node] 200 GET / ::ffff:127.0.0.1 
20:04:24.128 INFO  [Narrow Node] 200 GET / ::ffff:127.0.0.1 
21:32:33.142 INFO  [Narrow Node] 200 GET / ::ffff:127.0.0.1 
21:32:33.142 INFO  [Narrow Node] 200 GET / ::ffff:127.0.0.1 
22:40:46.127 INFO  [Narrow Node] 200 GET / ::ffff:127.0.0.1 
22:40:46.127 INFO  [Narrow Node] 200 GET / ::ffff:127.0.0.1 
23:04:18.670 INFO  [Narrow Node] 200 GET / ::ffff:127.0.0.1 
23:04:18.670 INFO  [Narrow Node] 200 GET / ::ffff:127.0.0.1 
23:58:18.127 INFO  [Narrow Node] 200 GET / ::ffff:127.0.0.1 
23:58:18.127 INFO  [Narrow Node] 200 GET / ::ffff:127.0.0.1 

